[1, 2, 3, 5, 7, 9, 10, 11, 13, 16]
[1, 2, 3, 5, 6, 7, 8, 9, 12, 13, 14, 16, 17]
[1, 2, 3, 4, 5, 6, 7, 9, 11, 13, 15, 16, 17]
[1, 2, 3, 4, 5, 6, 7, 9, 13, 16]
[1, 2, 3, 4, 5, 7, 9, 13, 14, 15, 16, 17]
[1, 2, 3, 4, 5, 6, 7, 9, 10, 12, 13, 16]
[1, 2, 3, 5, 7, 8, 9, 12, 13, 16]
[1, 2, 3, 5, 7, 9, 11, 13, 15, 16, 17]
[1, 2, 3, 5, 6, 7, 9, 10, 12, 13, 14, 15, 16, 17]
[1, 2, 3, 5, 7, 8, 9, 10, 13, 16]
[1, 2, 3, 4, 5, 7, 8, 9, 10, 11, 13, 16]
[1, 2, 3, 5, 7, 9, 12, 13, 14, 15, 16]
[1, 2, 3, 5, 6, 7, 8, 9, 10, 11, 12, 13, 14, 16, 17]
[1, 2, 3, 4, 5, 6, 7, 9, 10, 11, 13, 15, 16, 17]
[2, 3, 4, 5, 6, 7, 9, 10, 11, 13, 16]
[1, 2, 3, 4, 5, 7, 9, 10, 11, 13, 14, 15, 16, 17]
[2, 3, 4, 5, 6, 7, 9, 10, 11, 12, 13, 16]
[2, 3, 5, 7, 8, 9, 10, 11, 12, 13, 16]
[2, 3, 5, 7, 9, 10, 11, 13, 15, 16, 17]
[2, 3, 5, 6, 7, 9, 10, 11, 12, 13, 14, 15, 16, 17]
[1, 2, 3, 5, 7, 8, 9, 10, 11, 13, 16]
[2, 3, 4, 5, 7, 8, 9, 10, 11, 13, 16]
[2, 3, 5, 7, 9, 10, 11, 12, 13, 14, 15, 16]
[1, 2, 3, 4, 5, 6, 7, 8, 9, 11, 12, 13, 14, 15, 16, 17]
[1, 2, 3, 4, 5, 6, 7, 8, 9, 12, 13, 14, 16, 17]
[1, 2, 3, 4, 5, 6, 7, 8, 9, 12, 13, 14, 15, 16, 17]
[1, 2, 3, 4, 5, 6, 7, 8, 9, 10, 12, 13, 14, 16, 17]
[1, 2, 3, 5, 6, 7, 8, 9, 12, 13, 14, 16, 17]
[1, 2, 3, 5, 6, 7, 8, 9, 11, 12, 13, 14, 15, 16, 17]
[1, 2, 3, 5, 6, 7, 8, 9, 10, 12, 13, 14, 15, 16, 17]
[1, 2, 3, 5, 6, 7, 8, 9, 10, 12, 13, 14, 16, 17]
[1, 2, 3, 4, 5, 6, 7, 8, 9, 10, 11, 12, 13, 14, 16, 17]
[1, 2, 3, 5, 6, 7, 8, 9, 12, 13, 14, 15, 16, 17]
[1, 2, 3, 4, 5, 6, 7, 9, 11, 13, 15, 16, 17]
[1, 2, 3, 4, 5, 6, 7, 9, 11, 13, 14, 15, 16, 17]
[1, 2, 3, 4, 5, 6, 7, 9, 10, 11, 12, 13, 15, 16, 17]
[1, 2, 3, 4, 5, 6, 7, 8, 9, 11, 12, 13, 15, 16, 17]
[1, 2, 3, 4, 5, 6, 7, 9, 11, 13, 15, 16, 17]
[1, 2, 3, 4, 5, 6, 7, 9, 10, 11, 12, 13, 14, 15, 16, 17]
[1, 2, 3, 4, 5, 6, 7, 8, 9, 10, 11, 13, 15, 16, 17]
[1, 2, 3, 4, 5, 6, 7, 8, 9, 10, 11, 13, 15, 16, 17]
[1, 2, 3, 4, 5, 6, 7, 9, 11, 12, 13, 14, 15, 16, 17]
[1, 2, 3, 4, 5, 6, 7, 9, 13, 14, 15, 16, 17]
[2, 3, 4, 5, 6, 7, 9, 10, 12, 13, 16]
[2, 3, 4, 5, 6, 7, 8, 9, 12, 13, 16]
[2, 3, 4, 5, 6, 7, 9, 11, 13, 15, 16, 17]
[2, 3, 4, 5, 6, 7, 9, 10, 12, 13, 14, 15, 16, 17]
[1, 2, 3, 4, 5, 6, 7, 8, 9, 10, 13, 16]
[2, 3, 4, 5, 6, 7, 8, 9, 10, 11, 13, 16]
[2, 3, 4, 5, 6, 7, 9, 12, 13, 14, 15, 16]
[1, 2, 3, 4, 5, 6, 7, 9, 10, 12, 13, 14, 15, 16, 17]
[1, 2, 3, 4, 5, 7, 8, 9, 12, 13, 14, 15, 16, 17]
[1, 2, 3, 4, 5, 7, 9, 11, 13, 14, 15, 16, 17]
[1, 2, 3, 4, 5, 6, 7, 9, 10, 12, 13, 14, 15, 16, 17]
[1, 2, 3, 4, 5, 7, 8, 9, 10, 13, 14, 15, 16, 17]
[1, 2, 3, 4, 5, 7, 8, 9, 10, 11, 13, 14, 15, 16, 17]
[1, 2, 3, 4, 5, 7, 9, 12, 13, 14, 15, 16, 17]
[2, 3, 4, 5, 6, 7, 8, 9, 10, 12, 13, 16]
[2, 3, 4, 5, 6, 7, 9, 10, 11, 12, 13, 15, 16, 17]
[2, 3, 4, 5, 6, 7, 9, 10, 12, 13, 14, 15, 16, 17]
[1, 2, 3, 4, 5, 6, 7, 8, 9, 10, 12, 13, 16]
[2, 3, 4, 5, 6, 7, 8, 9, 10, 11, 12, 13, 16]
[2, 3, 4, 5, 6, 7, 9, 10, 12, 13, 14, 15, 16]
[2, 3, 5, 7, 8, 9, 11, 12, 13, 15, 16, 17]
[2, 3, 5, 6, 7, 8, 9, 10, 12, 13, 14, 15, 16, 17]
[1, 2, 3, 5, 7, 8, 9, 10, 12, 13, 16]
[2, 3, 4, 5, 7, 8, 9, 10, 11, 12, 13, 16]
[2, 3, 5, 7, 8, 9, 12, 13, 14, 15, 16]
[2, 3, 5, 6, 7, 9, 10, 11, 12, 13, 14, 15, 16, 17]
[1, 2, 3, 5, 7, 8, 9, 10, 11, 13, 15, 16, 17]
[2, 3, 4, 5, 7, 8, 9, 10, 11, 13, 15, 16, 17]
[2, 3, 5, 7, 9, 11, 12, 13, 14, 15, 16, 17]
[1, 2, 3, 5, 6, 7, 8, 9, 10, 12, 13, 14, 15, 16, 17]
[2, 3, 4, 5, 6, 7, 8, 9, 10, 11, 12, 13, 14, 15, 16, 17]
[2, 3, 5, 6, 7, 9, 10, 12, 13, 14, 15, 16, 17]
[1, 2, 3, 4, 5, 7, 8, 9, 10, 11, 13, 16]
[1, 2, 3, 5, 7, 8, 9, 10, 12, 13, 14, 15, 16]
[2, 3, 4, 5, 7, 8, 9, 10, 11, 12, 13, 14, 15, 16]
[1, 2, 3, 5, 6, 7, 8, 9, 10, 11, 12, 13, 14, 16, 17]
[1, 2, 3, 4, 5, 6, 7, 9, 10, 11, 13, 15, 16, 17]
[1, 2, 3, 4, 5, 6, 7, 9, 10, 11, 13, 16]
[1, 2, 3, 4, 5, 7, 9, 10, 11, 13, 14, 15, 16, 17]
[1, 2, 3, 4, 5, 6, 7, 9, 10, 11, 12, 13, 16]
[1, 2, 3, 5, 7, 8, 9, 10, 11, 12, 13, 16]
[1, 2, 3, 5, 7, 9, 10, 11, 13, 15, 16, 17]
[1, 2, 3, 5, 6, 7, 9, 10, 11, 12, 13, 14, 15, 16, 17]
[1, 2, 3, 5, 7, 8, 9, 10, 11, 13, 16]
[1, 2, 3, 4, 5, 7, 8, 9, 10, 11, 13, 16]
[1, 2, 3, 5, 7, 9, 10, 11, 12, 13, 14, 15, 16]
[1, 4, 5, 6, 7, 8, 9, 11, 12, 13, 14, 15, 17]
[1, 2, 4, 5, 6, 7, 8, 9, 12, 13, 14, 17]
[1, 4, 5, 6, 7, 8, 9, 12, 13, 14, 15, 17]
[1, 4, 5, 6, 7, 8, 9, 10, 12, 13, 14, 16, 17]
[1, 2, 5, 6, 7, 8, 9, 12, 13, 14, 16, 17]
[1, 2, 3, 5, 6, 7, 8, 9, 11, 12, 13, 14, 15, 17]
[1, 5, 6, 7, 8, 9, 10, 12, 13, 14, 15, 17]
[1, 3, 5, 6, 7, 8, 9, 10, 12, 13, 14, 16, 17]
[1, 4, 5, 6, 7, 8, 9, 10, 11, 12, 13, 14, 17]
[1, 3, 5, 6, 7, 8, 9, 12, 13, 14, 15, 17]
[1, 2, 4, 5, 6, 7, 9, 11, 13, 15, 17]
[1, 4, 5, 6, 7, 9, 11, 13, 14, 15, 17]
[1, 4, 5, 6, 7, 9, 10, 11, 12, 13, 15, 16, 17]
[1, 2, 4, 5, 6, 7, 8, 9, 11, 12, 13, 15, 16, 17]
[1, 2, 3, 4, 5, 6, 7, 9, 11, 13, 15, 17]
[1, 4, 5, 6, 7, 9, 10, 11, 12, 13, 14, 15, 17]
[1, 3, 4, 5, 6, 7, 8, 9, 10, 11, 13, 15, 16, 17]
[1, 4, 5, 6, 7, 8, 9, 10, 11, 13, 15, 17]
[1, 3, 4, 5, 6, 7, 9, 11, 12, 13, 14, 15, 17]
[1, 2, 4, 5, 6, 7, 9, 13, 14, 15, 17]
[1, 2, 4, 5, 6, 7, 9, 10, 12, 13, 16]
[1, 2, 4, 5, 6, 7, 8, 9, 12, 13, 16]
[1, 2, 3, 4, 5, 6, 7, 9, 11, 13, 15, 17]
[1, 2, 4, 5, 6, 7, 9, 10, 12, 13, 14, 15, 17]
[1, 2, 3, 4, 5, 6, 7, 8, 9, 10, 13, 16]
[1, 2, 4, 5, 6, 7, 8, 9, 10, 11, 13]
[1, 2, 3, 4, 5, 6, 7, 9, 12, 13, 14, 15]
[1, 4, 5, 6, 7, 9, 10, 12, 13, 14, 15, 16, 17]
[1, 2, 4, 5, 7, 8, 9, 12, 13, 14, 15, 16, 17]
[1, 2, 3, 4, 5, 7, 9, 11, 13, 14, 15, 17]
[1, 4, 5, 6, 7, 9, 10, 12, 13, 14, 15, 17]
[1, 3, 4, 5, 7, 8, 9, 10, 13, 14, 15, 16, 17]
[1, 4, 5, 7, 8, 9, 10, 11, 13, 14, 15, 17]
[1, 3, 4, 5, 7, 9, 12, 13, 14, 15, 17]
[1, 2, 4, 5, 6, 7, 8, 9, 10, 12, 13, 16]
[1, 2, 3, 4, 5, 6, 7, 9, 10, 11, 12, 13, 15, 16, 17]
[1, 4, 5, 6, 7, 9, 10, 12, 13, 14, 15, 16, 17]
[1, 3, 4, 5, 6, 7, 8, 9, 10, 12, 13, 16]
[1, 4, 5, 6, 7, 8, 9, 10, 11, 12, 13, 16]
[1, 3, 4, 5, 6, 7, 9, 10, 12, 13, 14, 15, 16]
[1, 2, 3, 5, 7, 8, 9, 11, 12, 13, 15, 16, 17]
[1, 2, 5, 6, 7, 8, 9, 10, 12, 13, 14, 15, 16, 17]
[1, 2, 3, 5, 7, 8, 9, 10, 12, 13, 16]
[1, 2, 4, 5, 7, 8, 9, 10, 11, 12, 13, 16]
[1, 2, 3, 5, 7, 8, 9, 12, 13, 14, 15, 16]
[1, 2, 3, 5, 6, 7, 9, 10, 11, 12, 13, 14, 15, 17]
[1, 2, 3, 5, 7, 8, 9, 10, 11, 13, 15, 16, 17]
[1, 2, 3, 4, 5, 7, 8, 9, 10, 11, 13, 15, 17]
[1, 2, 3, 5, 7, 9, 11, 12, 13, 14, 15, 17]
[1, 3, 5, 6, 7, 8, 9, 10, 12, 13, 14, 15, 16, 17]
[1, 4, 5, 6, 7, 8, 9, 10, 11, 12, 13, 14, 15, 17]
[1, 3, 5, 6, 7, 9, 10, 12, 13, 14, 15, 17]
[1, 3, 4, 5, 7, 8, 9, 10, 11, 13, 16]
[1, 3, 5, 7, 8, 9, 10, 12, 13, 14, 15, 16]
[1, 3, 4, 5, 7, 8, 9, 10, 11, 12, 13, 14, 15]
[1, 2, 3, 4, 5, 6, 7, 8, 10, 11, 12, 13, 14, 15, 16, 17]
[1, 2, 3, 4, 5, 6, 8, 9, 10, 11, 12, 13, 14, 16, 17]
[1, 2, 3, 4, 5, 6, 7, 8, 9, 10, 11, 12, 13, 14, 15, 16, 17]
[1, 2, 3, 4, 5, 6, 8, 10, 11, 12, 13, 14, 16, 17]
[1, 2, 3, 5, 6, 8, 10, 11, 12, 13, 14, 16, 17]
[1, 2, 3, 5, 6, 8, 10, 11, 12, 13, 14, 15, 16, 17]
[1, 2, 3, 5, 6, 8, 10, 11, 12, 13, 14, 15, 16, 17]
[1, 2, 3, 5, 6, 8, 10, 11, 12, 13, 14, 16, 17]
[1, 2, 3, 4, 5, 6, 8, 10, 11, 12, 13, 14, 16, 17]
[1, 2, 3, 5, 6, 7, 8, 9, 10, 11, 12, 13, 14, 15, 16, 17]
[1, 2, 3, 4, 5, 6, 7, 9, 10, 11, 13, 15, 16, 17]
[1, 2, 3, 4, 5, 6, 7, 9, 10, 11, 13, 14, 15, 16, 17]
[1, 2, 3, 4, 5, 6, 7, 10, 11, 12, 13, 15, 16, 17]
[1, 2, 3, 4, 5, 6, 7, 8, 10, 11, 12, 13, 15, 16, 17]
[1, 2, 3, 4, 5, 6, 7, 10, 11, 13, 15, 16, 17]
[1, 2, 3, 4, 5, 6, 7, 10, 11, 12, 13, 14, 15, 16, 17]
[1, 2, 3, 4, 5, 6, 7, 8, 10, 11, 13, 15, 16, 17]
[1, 2, 3, 4, 5, 6, 7, 8, 10, 11, 13, 15, 16, 17]
[1, 2, 3, 4, 5, 6, 7, 9, 10, 11, 12, 13, 14, 15, 16, 17]
[1, 2, 3, 4, 5, 6, 7, 9, 10, 11, 13, 14, 15, 16, 17]
[2, 3, 4, 5, 6, 9, 10, 11, 12, 13, 16]
[2, 3, 4, 5, 6, 8, 9, 10, 11, 12, 13, 16]
[2, 3, 4, 5, 6, 9, 10, 11, 13, 15, 16, 17]
[2, 3, 4, 5, 6, 9, 10, 11, 12, 13, 14, 15, 16, 17]
[1, 2, 3, 4, 5, 6, 8, 9, 10, 11, 13, 16]
[2, 3, 4, 5, 6, 8, 9, 10, 11, 13, 16]
[2, 3, 4, 5, 6, 7, 9, 10, 11, 12, 13, 14, 15, 16]
[1, 2, 3, 4, 5, 6, 7, 9, 10, 11, 12, 13, 14, 15, 16, 17]
[1, 2, 3, 4, 5, 7, 8, 9, 10, 11, 12, 13, 14, 15, 16, 17]
[1, 2, 3, 4, 5, 7, 9, 10, 11, 13, 14, 15, 16, 17]
[1, 2, 3, 4, 5, 6, 7, 9, 10, 11, 12, 13, 14, 15, 16, 17]
[1, 2, 3, 4, 5, 7, 8, 9, 10, 11, 13, 14, 15, 16, 17]
[1, 2, 3, 4, 5, 7, 8, 9, 10, 11, 13, 14, 15, 16, 17]
[1, 2, 3, 4, 5, 7, 9, 10, 11, 12, 13, 14, 15, 16, 17]
[2, 3, 4, 5, 6, 8, 10, 11, 12, 13, 16]
[2, 3, 4, 5, 6, 10, 11, 12, 13, 15, 16, 17]
[2, 3, 4, 5, 6, 10, 11, 12, 13, 14, 15, 16, 17]
[1, 2, 3, 4, 5, 6, 8, 10, 11, 12, 13, 16]
[2, 3, 4, 5, 6, 8, 10, 11, 12, 13, 16]
[2, 3, 4, 5, 6, 7, 9, 10, 11, 12, 13, 14, 15, 16]
[2, 3, 5, 8, 10, 11, 12, 13, 15, 16, 17]
[2, 3, 5, 6, 8, 10, 11, 12, 13, 14, 15, 16, 17]
[1, 2, 3, 5, 8, 10, 11, 12, 13, 16]
[2, 3, 4, 5, 8, 10, 11, 12, 13, 16]
[2, 3, 5, 7, 8, 9, 10, 11, 12, 13, 14, 15, 16]
[2, 3, 5, 6, 10, 11, 12, 13, 14, 15, 16, 17]
[1, 2, 3, 5, 8, 10, 11, 13, 15, 16, 17]
[2, 3, 4, 5, 8, 10, 11, 13, 15, 16, 17]
[2, 3, 5, 7, 9, 10, 11, 12, 13, 14, 15, 16, 17]
[1, 2, 3, 5, 6, 8, 10, 11, 12, 13, 14, 15, 16, 17]
[2, 3, 4, 5, 6, 8, 10, 11, 12, 13, 14, 15, 16, 17]
[2, 3, 5, 6, 7, 9, 10, 11, 12, 13, 14, 15, 16, 17]
[1, 2, 3, 4, 5, 8, 10, 11, 13, 16]
[1, 2, 3, 5, 7, 8, 9, 10, 11, 12, 13, 14, 15, 16]
[2, 3, 4, 5, 7, 8, 9, 10, 11, 12, 13, 14, 15, 16]
[1, 2, 4, 6, 7, 8, 9, 11, 12, 13, 14, 15, 17]
[1, 4, 6, 7, 8, 9, 11, 12, 14, 15, 17]
[1, 4, 6, 7, 8, 10, 11, 12, 14, 15, 16, 17]
[1, 2, 4, 6, 7, 8, 11, 12, 14, 15, 16, 17]
[1, 2, 3, 4, 5, 6, 7, 8, 11, 12, 14, 15, 17]
[1, 4, 6, 7, 8, 10, 11, 12, 14, 15, 17]
[1, 3, 4, 6, 7, 8, 10, 11, 12, 13, 14, 15, 16, 17]
[1, 4, 6, 7, 8, 10, 11, 12, 14, 15, 17]
[1, 3, 4, 6, 7, 8, 9, 11, 12, 14, 15, 17]
[1, 2, 4, 6, 7, 8, 9, 12, 13, 14, 15, 17]
[1, 2, 4, 6, 8, 9, 10, 12, 13, 14, 16, 17]
[1, 2, 4, 6, 8, 9, 12, 13, 14, 16, 17]
[1, 2, 3, 4, 5, 6, 8, 9, 11, 12, 13, 14, 15, 17]
[1, 2, 4, 6, 8, 9, 10, 12, 13, 14, 15, 17]
[1, 2, 3, 4, 6, 8, 9, 10, 12, 13, 14, 16, 17]
[1, 2, 4, 6, 8, 9, 10, 11, 12, 13, 14, 17]
[1, 2, 3, 4, 6, 7, 8, 9, 12, 13, 14, 15, 17]
[1, 4, 6, 7, 8, 9, 10, 12, 14, 15, 16, 17]
[1, 2, 4, 6, 7, 8, 9, 12, 14, 15, 16, 17]
[1, 2, 3, 4, 5, 6, 7, 8, 9, 11, 12, 14, 15, 17]
[1, 4, 6, 7, 8, 9, 10, 12, 14, 15, 17]
[1, 3, 4, 6, 7, 8, 9, 10, 12, 13, 14, 15, 16, 17]
[1, 4, 6, 7, 8, 9, 10, 11, 12, 14, 15, 17]
[1, 3, 4, 6, 7, 8, 9, 12, 14, 15, 17]
[1, 2, 4, 6, 8, 10, 12, 14, 16, 17]
[1, 2, 3, 4, 5, 6, 8, 10, 11, 12, 14, 15, 16, 17]
[1, 4, 6, 8, 10, 12, 14, 15, 16, 17]
[1, 3, 4, 6, 8, 10, 12, 13, 14, 16, 17]
[1, 4, 6, 8, 10, 11, 12, 14, 16, 17]
[1, 3, 4, 6, 7, 8, 9, 10, 12, 14, 15, 16, 17]
[1, 2, 3, 5, 6, 8, 11, 12, 14, 15, 16, 17]
[1, 2, 6, 8, 10, 12, 14, 15, 16, 17]
[1, 2, 3, 6, 8, 10, 12, 13, 14, 16, 17]
[1, 2, 4, 6, 8, 10, 11, 12, 14, 16, 17]
[1, 2, 3, 6, 7, 8, 9, 12, 14, 15, 16, 17]
[1, 2, 3, 5, 6, 8, 10, 11, 12, 14, 15, 17]
[1, 2, 3, 5, 6, 8, 10, 11, 12, 13, 14, 15, 16, 17]
[1, 2, 3, 4, 5, 6, 8, 10, 11, 12, 14, 15, 17]
[1, 2, 3, 5, 6, 7, 8, 9, 11, 12, 14, 15, 17]
[1, 3, 6, 8, 10, 12, 13, 14, 15, 16, 17]
[1, 4, 6, 8, 10, 11, 12, 14, 15, 17]
[1, 3, 6, 7, 8, 9, 10, 12, 14, 15, 17]
[1, 3, 4, 6, 8, 10, 11, 12, 13, 14, 16, 17]
[1, 3, 6, 7, 8, 9, 10, 12, 13, 14, 15, 16, 17]
[1, 3, 4, 6, 7, 8, 9, 10, 11, 12, 14, 15, 17]
[1, 2, 4, 6, 7, 9, 11, 13, 14, 15, 17]
[1, 2, 4, 6, 7, 9, 10, 11, 12, 13, 15, 16, 17]
[1, 2, 4, 6, 7, 8, 9, 11, 12, 13, 15, 16, 17]
[1, 2, 3, 4, 5, 6, 7, 9, 11, 13, 15, 17]
[1, 2, 4, 6, 7, 9, 10, 11, 12, 13, 14, 15, 17]
[1, 2, 3, 4, 6, 7, 8, 9, 10, 11, 13, 15, 16, 17]
[1, 2, 4, 6, 7, 8, 9, 10, 11, 13, 15, 17]
[1, 2, 3, 4, 6, 7, 9, 11, 12, 13, 14, 15, 17]
[1, 4, 6, 7, 9, 10, 11, 12, 14, 15, 16, 17]
[1, 2, 4, 6, 7, 8, 9, 11, 12, 14, 15, 16, 17]
[1, 2, 3, 4, 5, 6, 7, 9, 11, 14, 15, 17]
[1, 4, 6, 7, 9, 10, 11, 12, 14, 15, 17]
[1, 3, 4, 6, 7, 8, 9, 10, 11, 13, 14, 15, 16, 17]
[1, 4, 6, 7, 8, 9, 10, 11, 14, 15, 17]
[1, 3, 4, 6, 7, 9, 11, 12, 14, 15, 17]
[1, 2, 4, 6, 7, 8, 10, 11, 12, 15, 16, 17]
[1, 2, 3, 4, 5, 6, 7, 10, 11, 12, 15, 16, 17]
[1, 4, 6, 7, 10, 11, 12, 14, 15, 16, 17]
[1, 3, 4, 6, 7, 8, 10, 11, 12, 13, 15, 16, 17]
[1, 4, 6, 7, 8, 10, 11, 12, 15, 16, 17]
[1, 3, 4, 6, 7, 9, 10, 11, 12, 14, 15, 16, 17]
[1, 2, 3, 4, 5, 6, 7, 8, 11, 12, 15, 16, 17]
[1, 2, 4, 6, 7, 8, 10, 11, 12, 14, 15, 16, 17]
[1, 2, 3, 4, 6, 7, 8, 10, 11, 12, 13, 15, 16, 17]
[1, 2, 4, 6, 7, 8, 10, 11, 12, 15, 16, 17]
[1, 2, 3, 4, 6, 7, 8, 9, 11, 12, 14, 15, 16, 17]
[1, 2, 3, 4, 5, 6, 7, 10, 11, 12, 14, 15, 17]
[1, 2, 3, 4, 5, 6, 7, 8, 10, 11, 13, 15, 16, 17]
[1, 2, 3, 4, 5, 6, 7, 8, 10, 11, 15, 17]
[1, 2, 3, 4, 5, 6, 7, 9, 11, 12, 14, 15, 17]
[1, 3, 4, 6, 7, 8, 10, 11, 12, 13, 14, 15, 16, 17]
[1, 4, 6, 7, 8, 10, 11, 12, 14, 15, 17]
[1, 3, 4, 6, 7, 9, 10, 11, 12, 14, 15, 17]
[1, 3, 4, 6, 7, 8, 10, 11, 13, 15, 16, 17]
[1, 3, 4, 6, 7, 8, 9, 10, 11, 12, 13, 14, 15, 16, 17]
[1, 3, 4, 6, 7, 8, 9, 10, 11, 12, 14, 15, 17]
[1, 2, 4, 6, 7, 9, 10, 12, 13, 14, 15, 16, 17]
[1, 2, 4, 6, 7, 8, 9, 12, 13, 14, 15, 16, 17]
[1, 2, 3, 4, 5, 6, 7, 9, 11, 13, 14, 15, 17]
[1, 2, 4, 6, 7, 9, 10, 12, 13, 14, 15, 17]
[1, 2, 3, 4, 6, 7, 8, 9, 10, 13, 14, 15, 16, 17]
[1, 2, 4, 6, 7, 8, 9, 10, 11, 13, 14, 15, 17]
[1, 2, 3, 4, 6, 7, 9, 12, 13, 14, 15, 17]
[2, 4, 6, 8, 9, 10, 12, 13, 16]
[2, 3, 4, 5, 6, 9, 10, 11, 12, 13, 15, 16, 17]
[2, 4, 6, 9, 10, 12, 13, 14, 15, 16, 17]
[1, 2, 3, 4, 6, 8, 9, 10, 12, 13, 16]
[2, 4, 6, 8, 9, 10, 11, 12, 13, 16]
[2, 3, 4, 6, 7, 9, 10, 12, 13, 14, 15, 16]
[2, 3, 4, 5, 6, 8, 9, 11, 12, 13, 15, 16, 17]
[2, 4, 6, 8, 9, 10, 12, 13, 14, 15, 16, 17]
[1, 2, 3, 4, 6, 8, 9, 10, 12, 13, 16]
[2, 4, 6, 8, 9, 10, 11, 12, 13, 16]
[2, 3, 4, 6, 7, 8, 9, 12, 13, 14, 15, 16]
[2, 3, 4, 5, 6, 9, 10, 11, 12, 13, 14, 15, 17]
[1, 2, 3, 4, 5, 6, 8, 9, 10, 11, 13, 15, 16, 17]
[2, 3, 4, 5, 6, 8, 9, 10, 11, 13, 15, 17]
[2, 3, 4, 5, 6, 7, 9, 11, 12, 13, 14, 15, 17]
[1, 2, 3, 4, 6, 8, 9, 10, 12, 13, 14, 15, 16, 17]
[2, 4, 6, 8, 9, 10, 11, 12, 13, 14, 15, 17]
[2, 3, 4, 6, 7, 9, 10, 12, 13, 14, 15, 17]
[1, 2, 3, 4, 6, 8, 9, 10, 11, 13, 16]
[1, 2, 3, 4, 6, 7, 8, 9, 10, 12, 13, 14, 15, 16]
[2, 3, 4, 6, 7, 8, 9, 10, 11, 12, 13, 14, 15]
[1, 2, 4, 6, 7, 8, 9, 10, 12, 14, 15, 16, 17]
[1, 2, 3, 4, 5, 6, 7, 9, 10, 11, 12, 14, 15, 16, 17]
[1, 4, 6, 7, 9, 10, 12, 14, 15, 16, 17]
[1, 3, 4, 6, 7, 8, 9, 10, 12, 13, 14, 15, 16, 17]
[1, 4, 6, 7, 8, 9, 10, 11, 12, 14, 15, 16, 17]
[1, 3, 4, 6, 7, 9, 10, 12, 14, 15, 16, 17]
[1, 2, 3, 4, 5, 7, 8, 9, 11, 12, 14, 15, 16, 17]
[1, 2, 4, 6, 7, 8, 9, 10, 12, 14, 15, 16, 17]
[1, 2, 3, 4, 7, 8, 9, 10, 12, 13, 14, 15, 16, 17]
[1, 2, 4, 7, 8, 9, 10, 11, 12, 14, 15, 16, 17]
[1, 2, 3, 4, 7, 8, 9, 12, 14, 15, 16, 17]
[1, 2, 3, 4, 5, 6, 7, 9, 10, 11, 12, 14, 15, 17]
[1, 2, 3, 4, 5, 7, 8, 9, 10, 11, 13, 14, 15, 16, 17]
[1, 2, 3, 4, 5, 7, 8, 9, 10, 11, 14, 15, 17]
[1, 2, 3, 4, 5, 7, 9, 11, 12, 14, 15, 17]
[1, 3, 4, 6, 7, 8, 9, 10, 12, 13, 14, 15, 16, 17]
[1, 4, 6, 7, 8, 9, 10, 11, 12, 14, 15, 17]
[1, 3, 4, 6, 7, 9, 10, 12, 14, 15, 17]
[1, 3, 4, 7, 8, 9, 10, 11, 13, 14, 15, 16, 17]
[1, 3, 4, 7, 8, 9, 10, 12, 13, 14, 15, 16, 17]
[1, 3, 4, 7, 8, 9, 10, 11, 12, 14, 15, 17]
[2, 3, 4, 5, 6, 8, 10, 11, 12, 15, 16, 17]
[2, 4, 6, 8, 10, 12, 14, 15, 16, 17]
[1, 2, 3, 4, 6, 8, 10, 12, 13, 16]
[2, 4, 6, 8, 10, 11, 12, 16]
[2, 3, 4, 6, 7, 8, 9, 10, 12, 14, 15, 16]
[2, 3, 4, 5, 6, 10, 11, 12, 14, 15, 16, 17]
[1, 2, 3, 4, 5, 6, 8, 10, 11, 12, 13, 15, 16, 17]
[2, 3, 4, 5, 6, 8, 10, 11, 12, 15, 16, 17]
[2, 3, 4, 5, 6, 7, 9, 10, 11, 12, 14, 15, 16, 17]
[1, 3, 4, 6, 8, 10, 12, 13, 14, 15, 16, 17]
[4, 6, 8, 10, 11, 12, 14, 15, 16, 17]
[3, 4, 6, 7, 9, 10, 12, 14, 15, 16, 17]
[1, 3, 4, 6, 8, 10, 11, 12, 13, 16]
[1, 3, 4, 6, 7, 8, 9, 10, 12, 13, 14, 15, 16]
[3, 4, 6, 7, 8, 9, 10, 11, 12, 14, 15, 16]
[2, 3, 5, 6, 8, 10, 11, 12, 14, 15, 16, 17]
[1, 2, 3, 5, 8, 10, 11, 12, 13, 15, 16, 17]
[2, 3, 4, 5, 8, 10, 11, 12, 15, 16, 17]
[2, 3, 5, 7, 8, 9, 11, 12, 14, 15, 16, 17]
[1, 2, 3, 6, 8, 10, 12, 13, 14, 15, 16, 17]
[2, 4, 6, 8, 10, 11, 12, 14, 15, 16, 17]
[2, 3, 6, 7, 8, 9, 10, 12, 14, 15, 16, 17]
[1, 2, 3, 4, 8, 10, 11, 12, 13, 16]
[1, 2, 3, 7, 8, 9, 10, 12, 13, 14, 15, 16]
[2, 3, 4, 7, 8, 9, 10, 11, 12, 14, 15, 16]
[1, 2, 3, 5, 6, 8, 10, 11, 12, 13, 14, 15, 16, 17]
[2, 3, 4, 5, 6, 8, 10, 11, 12, 14, 15, 17]
[2, 3, 5, 6, 7, 9, 10, 11, 12, 14, 15, 17]
[1, 2, 3, 4, 5, 8, 10, 11, 13, 15, 16, 17]
[1, 2, 3, 5, 7, 8, 9, 10, 11, 12, 13, 14, 15, 16, 17]
[2, 3, 4, 5, 7, 8, 9, 10, 11, 12, 14, 15, 17]
[1, 3, 4, 6, 8, 10, 11, 12, 13, 14, 15, 16, 17]
[1, 3, 6, 7, 8, 9, 10, 12, 13, 14, 15, 16, 17]
[3, 4, 6, 7, 8, 9, 10, 11, 12, 14, 15, 17]
[1, 3, 4, 7, 8, 9, 10, 11, 12, 13, 14, 15, 16]
