Teams: (2, 3, 4)
[1, 2, 3, 5, 7, 9, 10, 11, 13, 16]
----------------------------------------
Teams: (2, 3, 5)
[1, 2, 3, 5, 6, 7, 8, 9, 12, 13, 14, 16, 17]
----------------------------------------
Teams: (2, 3, 7)
[1, 2, 3, 4, 5, 6, 7, 9, 11, 13, 15, 16, 17]
----------------------------------------
Teams: (2, 3, 8)
[1, 2, 3, 4, 5, 6, 7, 9, 13, 16]
----------------------------------------
Teams: (2, 3, 9)
[1, 2, 3, 4, 5, 7, 9, 13, 14, 15, 16, 17]
----------------------------------------
Teams: (2, 3, 13)
[1, 2, 3, 4, 5, 6, 7, 9, 10, 12, 13, 16]
----------------------------------------
Teams: (2, 3, 14)
[1, 2, 3, 5, 7, 8, 9, 12, 13, 16]
----------------------------------------
Teams: (2, 3, 15)
[1, 2, 3, 5, 7, 9, 11, 13, 15, 16, 17]
----------------------------------------
Teams: (2, 3, 16)
[1, 2, 3, 5, 6, 7, 9, 10, 12, 13, 14, 15, 16, 17]
----------------------------------------
Teams: (2, 3, 18)
[1, 2, 3, 5, 7, 8, 9, 10, 13, 16]
----------------------------------------
Teams: (2, 3, 19)
[1, 2, 3, 4, 5, 7, 8, 9, 10, 11, 13, 16]
----------------------------------------
Teams: (2, 3, 20)
[1, 2, 3, 5, 7, 9, 12, 13, 14, 15, 16]
----------------------------------------
Teams: (2, 4, 5)
[1, 2, 3, 5, 6, 7, 8, 9, 10, 11, 12, 13, 14, 16, 17]
----------------------------------------
Teams: (2, 4, 7)
[1, 2, 3, 4, 5, 6, 7, 9, 10, 11, 13, 15, 16, 17]
----------------------------------------
Teams: (2, 4, 8)
[2, 3, 4, 5, 6, 7, 9, 10, 11, 13, 16]
----------------------------------------
Teams: (2, 4, 9)
[1, 2, 3, 4, 5, 7, 9, 10, 11, 13, 14, 15, 16, 17]
----------------------------------------
Teams: (2, 4, 13)
[2, 3, 4, 5, 6, 7, 9, 10, 11, 12, 13, 16]
----------------------------------------
Teams: (2, 4, 14)
[2, 3, 5, 7, 8, 9, 10, 11, 12, 13, 16]
----------------------------------------
Teams: (2, 4, 15)
[2, 3, 5, 7, 9, 10, 11, 13, 15, 16, 17]
----------------------------------------
Teams: (2, 4, 16)
[2, 3, 5, 6, 7, 9, 10, 11, 12, 13, 14, 15, 16, 17]
----------------------------------------
Teams: (2, 4, 18)
[1, 2, 3, 5, 7, 8, 9, 10, 11, 13, 16]
----------------------------------------
Teams: (2, 4, 19)
[2, 3, 4, 5, 7, 8, 9, 10, 11, 13, 16]
----------------------------------------
Teams: (2, 4, 20)
[2, 3, 5, 7, 9, 10, 11, 12, 13, 14, 15, 16]
----------------------------------------
Teams: (2, 5, 7)
[1, 2, 3, 4, 5, 6, 7, 8, 9, 11, 12, 13, 14, 15, 16, 17]
----------------------------------------
Teams: (2, 5, 8)
[1, 2, 3, 4, 5, 6, 7, 8, 9, 12, 13, 14, 16, 17]
----------------------------------------
Teams: (2, 5, 9)
[1, 2, 3, 4, 5, 6, 7, 8, 9, 12, 13, 14, 15, 16, 17]
----------------------------------------
Teams: (2, 5, 13)
[1, 2, 3, 4, 5, 6, 7, 8, 9, 10, 12, 13, 14, 16, 17]
----------------------------------------
Teams: (2, 5, 14)
[1, 2, 3, 5, 6, 7, 8, 9, 12, 13, 14, 16, 17]
----------------------------------------
Teams: (2, 5, 15)
[1, 2, 3, 5, 6, 7, 8, 9, 11, 12, 13, 14, 15, 16, 17]
----------------------------------------
Teams: (2, 5, 16)
[1, 2, 3, 5, 6, 7, 8, 9, 10, 12, 13, 14, 15, 16, 17]
----------------------------------------
Teams: (2, 5, 18)
[1, 2, 3, 5, 6, 7, 8, 9, 10, 12, 13, 14, 16, 17]
----------------------------------------
Teams: (2, 5, 19)
[1, 2, 3, 4, 5, 6, 7, 8, 9, 10, 11, 12, 13, 14, 16, 17]
----------------------------------------
Teams: (2, 5, 20)
[1, 2, 3, 5, 6, 7, 8, 9, 12, 13, 14, 15, 16, 17]
----------------------------------------
Teams: (2, 7, 8)
[1, 2, 3, 4, 5, 6, 7, 9, 11, 13, 15, 16, 17]
----------------------------------------
Teams: (2, 7, 9)
[1, 2, 3, 4, 5, 6, 7, 9, 11, 13, 14, 15, 16, 17]
----------------------------------------
Teams: (2, 7, 13)
[1, 2, 3, 4, 5, 6, 7, 9, 10, 11, 12, 13, 15, 16, 17]
----------------------------------------
Teams: (2, 7, 14)
[1, 2, 3, 4, 5, 6, 7, 8, 9, 11, 12, 13, 15, 16, 17]
----------------------------------------
Teams: (2, 7, 15)
[1, 2, 3, 4, 5, 6, 7, 9, 11, 13, 15, 16, 17]
----------------------------------------
Teams: (2, 7, 16)
[1, 2, 3, 4, 5, 6, 7, 9, 10, 11, 12, 13, 14, 15, 16, 17]
----------------------------------------
Teams: (2, 7, 18)
[1, 2, 3, 4, 5, 6, 7, 8, 9, 10, 11, 13, 15, 16, 17]
----------------------------------------
Teams: (2, 7, 19)
[1, 2, 3, 4, 5, 6, 7, 8, 9, 10, 11, 13, 15, 16, 17]
----------------------------------------
Teams: (2, 7, 20)
[1, 2, 3, 4, 5, 6, 7, 9, 11, 12, 13, 14, 15, 16, 17]
----------------------------------------
Teams: (2, 8, 9)
[1, 2, 3, 4, 5, 6, 7, 9, 13, 14, 15, 16, 17]
----------------------------------------
Teams: (2, 8, 13)
[2, 3, 4, 5, 6, 7, 9, 10, 12, 13, 16]
----------------------------------------
Teams: (2, 8, 14)
[2, 3, 4, 5, 6, 7, 8, 9, 12, 13, 16]
----------------------------------------
Teams: (2, 8, 15)
[2, 3, 4, 5, 6, 7, 9, 11, 13, 15, 16, 17]
----------------------------------------
Teams: (2, 8, 16)
[2, 3, 4, 5, 6, 7, 9, 10, 12, 13, 14, 15, 16, 17]
----------------------------------------
Teams: (2, 8, 18)
[1, 2, 3, 4, 5, 6, 7, 8, 9, 10, 13, 16]
----------------------------------------
Teams: (2, 8, 19)
[2, 3, 4, 5, 6, 7, 8, 9, 10, 11, 13, 16]
----------------------------------------
Teams: (2, 8, 20)
[2, 3, 4, 5, 6, 7, 9, 12, 13, 14, 15, 16]
----------------------------------------
Teams: (2, 9, 13)
[1, 2, 3, 4, 5, 6, 7, 9, 10, 12, 13, 14, 15, 16, 17]
----------------------------------------
Teams: (2, 9, 14)
[1, 2, 3, 4, 5, 7, 8, 9, 12, 13, 14, 15, 16, 17]
----------------------------------------
Teams: (2, 9, 15)
[1, 2, 3, 4, 5, 7, 9, 11, 13, 14, 15, 16, 17]
----------------------------------------
Teams: (2, 9, 16)
[1, 2, 3, 4, 5, 6, 7, 9, 10, 12, 13, 14, 15, 16, 17]
----------------------------------------
Teams: (2, 9, 18)
[1, 2, 3, 4, 5, 7, 8, 9, 10, 13, 14, 15, 16, 17]
----------------------------------------
Teams: (2, 9, 19)
[1, 2, 3, 4, 5, 7, 8, 9, 10, 11, 13, 14, 15, 16, 17]
----------------------------------------
Teams: (2, 9, 20)
[1, 2, 3, 4, 5, 7, 9, 12, 13, 14, 15, 16, 17]
----------------------------------------
Teams: (2, 13, 14)
[2, 3, 4, 5, 6, 7, 8, 9, 10, 12, 13, 16]
----------------------------------------
Teams: (2, 13, 15)
[2, 3, 4, 5, 6, 7, 9, 10, 11, 12, 13, 15, 16, 17]
----------------------------------------
Teams: (2, 13, 16)
[2, 3, 4, 5, 6, 7, 9, 10, 12, 13, 14, 15, 16, 17]
----------------------------------------
Teams: (2, 13, 18)
[1, 2, 3, 4, 5, 6, 7, 8, 9, 10, 12, 13, 16]
----------------------------------------
Teams: (2, 13, 19)
[2, 3, 4, 5, 6, 7, 8, 9, 10, 11, 12, 13, 16]
----------------------------------------
Teams: (2, 13, 20)
[2, 3, 4, 5, 6, 7, 9, 10, 12, 13, 14, 15, 16]
----------------------------------------
Teams: (2, 14, 15)
[2, 3, 5, 7, 8, 9, 11, 12, 13, 15, 16, 17]
----------------------------------------
Teams: (2, 14, 16)
[2, 3, 5, 6, 7, 8, 9, 10, 12, 13, 14, 15, 16, 17]
----------------------------------------
Teams: (2, 14, 18)
[1, 2, 3, 5, 7, 8, 9, 10, 12, 13, 16]
----------------------------------------
Teams: (2, 14, 19)
[2, 3, 4, 5, 7, 8, 9, 10, 11, 12, 13, 16]
----------------------------------------
Teams: (2, 14, 20)
[2, 3, 5, 7, 8, 9, 12, 13, 14, 15, 16]
----------------------------------------
Teams: (2, 15, 16)
[2, 3, 5, 6, 7, 9, 10, 11, 12, 13, 14, 15, 16, 17]
----------------------------------------
Teams: (2, 15, 18)
[1, 2, 3, 5, 7, 8, 9, 10, 11, 13, 15, 16, 17]
----------------------------------------
Teams: (2, 15, 19)
[2, 3, 4, 5, 7, 8, 9, 10, 11, 13, 15, 16, 17]
----------------------------------------
Teams: (2, 15, 20)
[2, 3, 5, 7, 9, 11, 12, 13, 14, 15, 16, 17]
----------------------------------------
Teams: (2, 16, 18)
[1, 2, 3, 5, 6, 7, 8, 9, 10, 12, 13, 14, 15, 16, 17]
----------------------------------------
Teams: (2, 16, 19)
[2, 3, 4, 5, 6, 7, 8, 9, 10, 11, 12, 13, 14, 15, 16, 17]
----------------------------------------
Teams: (2, 16, 20)
[2, 3, 5, 6, 7, 9, 10, 12, 13, 14, 15, 16, 17]
----------------------------------------
Teams: (2, 18, 19)
[1, 2, 3, 4, 5, 7, 8, 9, 10, 11, 13, 16]
----------------------------------------
Teams: (2, 18, 20)
[1, 2, 3, 5, 7, 8, 9, 10, 12, 13, 14, 15, 16]
----------------------------------------
Teams: (2, 19, 20)
[2, 3, 4, 5, 7, 8, 9, 10, 11, 12, 13, 14, 15, 16]
----------------------------------------
Teams: (3, 4, 5)
[1, 2, 3, 5, 6, 7, 8, 9, 10, 11, 12, 13, 14, 16, 17]
----------------------------------------
Teams: (3, 4, 7)
[1, 2, 3, 4, 5, 6, 7, 9, 10, 11, 13, 15, 16, 17]
----------------------------------------
Teams: (3, 4, 8)
[1, 2, 3, 4, 5, 6, 7, 9, 10, 11, 13, 16]
----------------------------------------
Teams: (3, 4, 9)
[1, 2, 3, 4, 5, 7, 9, 10, 11, 13, 14, 15, 16, 17]
----------------------------------------
Teams: (3, 4, 13)
[1, 2, 3, 4, 5, 6, 7, 9, 10, 11, 12, 13, 16]
----------------------------------------
Teams: (3, 4, 14)
[1, 2, 3, 5, 7, 8, 9, 10, 11, 12, 13, 16]
----------------------------------------
Teams: (3, 4, 15)
[1, 2, 3, 5, 7, 9, 10, 11, 13, 15, 16, 17]
----------------------------------------
Teams: (3, 4, 16)
[1, 2, 3, 5, 6, 7, 9, 10, 11, 12, 13, 14, 15, 16, 17]
----------------------------------------
Teams: (3, 4, 18)
[1, 2, 3, 5, 7, 8, 9, 10, 11, 13, 16]
----------------------------------------
Teams: (3, 4, 19)
[1, 2, 3, 4, 5, 7, 8, 9, 10, 11, 13, 16]
----------------------------------------
Teams: (3, 4, 20)
[1, 2, 3, 5, 7, 9, 10, 11, 12, 13, 14, 15, 16]
----------------------------------------
Teams: (3, 5, 7)
[1, 4, 5, 6, 7, 8, 9, 11, 12, 13, 14, 15, 17]
----------------------------------------
Teams: (3, 5, 8)
[1, 2, 4, 5, 6, 7, 8, 9, 12, 13, 14, 17]
----------------------------------------
Teams: (3, 5, 9)
[1, 4, 5, 6, 7, 8, 9, 12, 13, 14, 15, 17]
----------------------------------------
Teams: (3, 5, 13)
[1, 4, 5, 6, 7, 8, 9, 10, 12, 13, 14, 16, 17]
----------------------------------------
Teams: (3, 5, 14)
[1, 2, 5, 6, 7, 8, 9, 12, 13, 14, 16, 17]
----------------------------------------
Teams: (3, 5, 15)
[1, 2, 3, 5, 6, 7, 8, 9, 11, 12, 13, 14, 15, 17]
----------------------------------------
Teams: (3, 5, 16)
[1, 5, 6, 7, 8, 9, 10, 12, 13, 14, 15, 17]
----------------------------------------
Teams: (3, 5, 18)
[1, 3, 5, 6, 7, 8, 9, 10, 12, 13, 14, 16, 17]
----------------------------------------
Teams: (3, 5, 19)
[1, 4, 5, 6, 7, 8, 9, 10, 11, 12, 13, 14, 17]
----------------------------------------
Teams: (3, 5, 20)
[1, 3, 5, 6, 7, 8, 9, 12, 13, 14, 15, 17]
----------------------------------------
Teams: (3, 7, 8)
[1, 2, 4, 5, 6, 7, 9, 11, 13, 15, 17]
----------------------------------------
Teams: (3, 7, 9)
[1, 4, 5, 6, 7, 9, 11, 13, 14, 15, 17]
----------------------------------------
Teams: (3, 7, 13)
[1, 4, 5, 6, 7, 9, 10, 11, 12, 13, 15, 16, 17]
----------------------------------------
Teams: (3, 7, 14)
[1, 2, 4, 5, 6, 7, 8, 9, 11, 12, 13, 15, 16, 17]
----------------------------------------
Teams: (3, 7, 15)
[1, 2, 3, 4, 5, 6, 7, 9, 11, 13, 15, 17]
----------------------------------------
Teams: (3, 7, 16)
[1, 4, 5, 6, 7, 9, 10, 11, 12, 13, 14, 15, 17]
----------------------------------------
Teams: (3, 7, 18)
[1, 3, 4, 5, 6, 7, 8, 9, 10, 11, 13, 15, 16, 17]
----------------------------------------
Teams: (3, 7, 19)
[1, 4, 5, 6, 7, 8, 9, 10, 11, 13, 15, 17]
----------------------------------------
Teams: (3, 7, 20)
[1, 3, 4, 5, 6, 7, 9, 11, 12, 13, 14, 15, 17]
----------------------------------------
Teams: (3, 8, 9)
[1, 2, 4, 5, 6, 7, 9, 13, 14, 15, 17]
----------------------------------------
Teams: (3, 8, 13)
[1, 2, 4, 5, 6, 7, 9, 10, 12, 13, 16]
----------------------------------------
Teams: (3, 8, 14)
[1, 2, 4, 5, 6, 7, 8, 9, 12, 13, 16]
----------------------------------------
Teams: (3, 8, 15)
[1, 2, 3, 4, 5, 6, 7, 9, 11, 13, 15, 17]
----------------------------------------
Teams: (3, 8, 16)
[1, 2, 4, 5, 6, 7, 9, 10, 12, 13, 14, 15, 17]
----------------------------------------
Teams: (3, 8, 18)
[1, 2, 3, 4, 5, 6, 7, 8, 9, 10, 13, 16]
----------------------------------------
Teams: (3, 8, 19)
[1, 2, 4, 5, 6, 7, 8, 9, 10, 11, 13]
----------------------------------------
Teams: (3, 8, 20)
[1, 2, 3, 4, 5, 6, 7, 9, 12, 13, 14, 15]
----------------------------------------
Teams: (3, 9, 13)
[1, 4, 5, 6, 7, 9, 10, 12, 13, 14, 15, 16, 17]
----------------------------------------
Teams: (3, 9, 14)
[1, 2, 4, 5, 7, 8, 9, 12, 13, 14, 15, 16, 17]
----------------------------------------
Teams: (3, 9, 15)
[1, 2, 3, 4, 5, 7, 9, 11, 13, 14, 15, 17]
----------------------------------------
Teams: (3, 9, 16)
[1, 4, 5, 6, 7, 9, 10, 12, 13, 14, 15, 17]
----------------------------------------
Teams: (3, 9, 18)
[1, 3, 4, 5, 7, 8, 9, 10, 13, 14, 15, 16, 17]
----------------------------------------
Teams: (3, 9, 19)
[1, 4, 5, 7, 8, 9, 10, 11, 13, 14, 15, 17]
----------------------------------------
Teams: (3, 9, 20)
[1, 3, 4, 5, 7, 9, 12, 13, 14, 15, 17]
----------------------------------------
Teams: (3, 13, 14)
[1, 2, 4, 5, 6, 7, 8, 9, 10, 12, 13, 16]
----------------------------------------
Teams: (3, 13, 15)
[1, 2, 3, 4, 5, 6, 7, 9, 10, 11, 12, 13, 15, 16, 17]
----------------------------------------
Teams: (3, 13, 16)
[1, 4, 5, 6, 7, 9, 10, 12, 13, 14, 15, 16, 17]
----------------------------------------
Teams: (3, 13, 18)
[1, 3, 4, 5, 6, 7, 8, 9, 10, 12, 13, 16]
----------------------------------------
Teams: (3, 13, 19)
[1, 4, 5, 6, 7, 8, 9, 10, 11, 12, 13, 16]
----------------------------------------
Teams: (3, 13, 20)
[1, 3, 4, 5, 6, 7, 9, 10, 12, 13, 14, 15, 16]
----------------------------------------
Teams: (3, 14, 15)
[1, 2, 3, 5, 7, 8, 9, 11, 12, 13, 15, 16, 17]
----------------------------------------
Teams: (3, 14, 16)
[1, 2, 5, 6, 7, 8, 9, 10, 12, 13, 14, 15, 16, 17]
----------------------------------------
Teams: (3, 14, 18)
[1, 2, 3, 5, 7, 8, 9, 10, 12, 13, 16]
----------------------------------------
Teams: (3, 14, 19)
[1, 2, 4, 5, 7, 8, 9, 10, 11, 12, 13, 16]
----------------------------------------
Teams: (3, 14, 20)
[1, 2, 3, 5, 7, 8, 9, 12, 13, 14, 15, 16]
----------------------------------------
Teams: (3, 15, 16)
[1, 2, 3, 5, 6, 7, 9, 10, 11, 12, 13, 14, 15, 17]
----------------------------------------
Teams: (3, 15, 18)
[1, 2, 3, 5, 7, 8, 9, 10, 11, 13, 15, 16, 17]
----------------------------------------
Teams: (3, 15, 19)
[1, 2, 3, 4, 5, 7, 8, 9, 10, 11, 13, 15, 17]
----------------------------------------
Teams: (3, 15, 20)
[1, 2, 3, 5, 7, 9, 11, 12, 13, 14, 15, 17]
----------------------------------------
Teams: (3, 16, 18)
[1, 3, 5, 6, 7, 8, 9, 10, 12, 13, 14, 15, 16, 17]
----------------------------------------
Teams: (3, 16, 19)
[1, 4, 5, 6, 7, 8, 9, 10, 11, 12, 13, 14, 15, 17]
----------------------------------------
Teams: (3, 16, 20)
[1, 3, 5, 6, 7, 9, 10, 12, 13, 14, 15, 17]
----------------------------------------
Teams: (3, 18, 19)
[1, 3, 4, 5, 7, 8, 9, 10, 11, 13, 16]
----------------------------------------
Teams: (3, 18, 20)
[1, 3, 5, 7, 8, 9, 10, 12, 13, 14, 15, 16]
----------------------------------------
Teams: (3, 19, 20)
[1, 3, 4, 5, 7, 8, 9, 10, 11, 12, 13, 14, 15]
----------------------------------------
Teams: (4, 5, 7)
[1, 2, 3, 4, 5, 6, 7, 8, 10, 11, 12, 13, 14, 15, 16, 17]
----------------------------------------
Teams: (4, 5, 8)
[1, 2, 3, 4, 5, 6, 8, 9, 10, 11, 12, 13, 14, 16, 17]
----------------------------------------
Teams: (4, 5, 9)
[1, 2, 3, 4, 5, 6, 7, 8, 9, 10, 11, 12, 13, 14, 15, 16, 17]
----------------------------------------
Teams: (4, 5, 13)
[1, 2, 3, 4, 5, 6, 8, 10, 11, 12, 13, 14, 16, 17]
----------------------------------------
Teams: (4, 5, 14)
[1, 2, 3, 5, 6, 8, 10, 11, 12, 13, 14, 16, 17]
----------------------------------------
Teams: (4, 5, 15)
[1, 2, 3, 5, 6, 8, 10, 11, 12, 13, 14, 15, 16, 17]
----------------------------------------
Teams: (4, 5, 16)
[1, 2, 3, 5, 6, 8, 10, 11, 12, 13, 14, 15, 16, 17]
----------------------------------------
Teams: (4, 5, 18)
[1, 2, 3, 5, 6, 8, 10, 11, 12, 13, 14, 16, 17]
----------------------------------------
Teams: (4, 5, 19)
[1, 2, 3, 4, 5, 6, 8, 10, 11, 12, 13, 14, 16, 17]
----------------------------------------
Teams: (4, 5, 20)
[1, 2, 3, 5, 6, 7, 8, 9, 10, 11, 12, 13, 14, 15, 16, 17]
----------------------------------------
Teams: (4, 7, 8)
[1, 2, 3, 4, 5, 6, 7, 9, 10, 11, 13, 15, 16, 17]
----------------------------------------
Teams: (4, 7, 9)
[1, 2, 3, 4, 5, 6, 7, 9, 10, 11, 13, 14, 15, 16, 17]
----------------------------------------
Teams: (4, 7, 13)
[1, 2, 3, 4, 5, 6, 7, 10, 11, 12, 13, 15, 16, 17]
----------------------------------------
Teams: (4, 7, 14)
[1, 2, 3, 4, 5, 6, 7, 8, 10, 11, 12, 13, 15, 16, 17]
----------------------------------------
Teams: (4, 7, 15)
[1, 2, 3, 4, 5, 6, 7, 10, 11, 13, 15, 16, 17]
----------------------------------------
Teams: (4, 7, 16)
[1, 2, 3, 4, 5, 6, 7, 10, 11, 12, 13, 14, 15, 16, 17]
----------------------------------------
Teams: (4, 7, 18)
[1, 2, 3, 4, 5, 6, 7, 8, 10, 11, 13, 15, 16, 17]
----------------------------------------
Teams: (4, 7, 19)
[1, 2, 3, 4, 5, 6, 7, 8, 10, 11, 13, 15, 16, 17]
----------------------------------------
Teams: (4, 7, 20)
[1, 2, 3, 4, 5, 6, 7, 9, 10, 11, 12, 13, 14, 15, 16, 17]
----------------------------------------
Teams: (4, 8, 9)
[1, 2, 3, 4, 5, 6, 7, 9, 10, 11, 13, 14, 15, 16, 17]
----------------------------------------
Teams: (4, 8, 13)
[2, 3, 4, 5, 6, 9, 10, 11, 12, 13, 16]
----------------------------------------
Teams: (4, 8, 14)
[2, 3, 4, 5, 6, 8, 9, 10, 11, 12, 13, 16]
----------------------------------------
Teams: (4, 8, 15)
[2, 3, 4, 5, 6, 9, 10, 11, 13, 15, 16, 17]
----------------------------------------
Teams: (4, 8, 16)
[2, 3, 4, 5, 6, 9, 10, 11, 12, 13, 14, 15, 16, 17]
----------------------------------------
Teams: (4, 8, 18)
[1, 2, 3, 4, 5, 6, 8, 9, 10, 11, 13, 16]
----------------------------------------
Teams: (4, 8, 19)
[2, 3, 4, 5, 6, 8, 9, 10, 11, 13, 16]
----------------------------------------
Teams: (4, 8, 20)
[2, 3, 4, 5, 6, 7, 9, 10, 11, 12, 13, 14, 15, 16]
----------------------------------------
Teams: (4, 9, 13)
[1, 2, 3, 4, 5, 6, 7, 9, 10, 11, 12, 13, 14, 15, 16, 17]
----------------------------------------
Teams: (4, 9, 14)
[1, 2, 3, 4, 5, 7, 8, 9, 10, 11, 12, 13, 14, 15, 16, 17]
----------------------------------------
Teams: (4, 9, 15)
[1, 2, 3, 4, 5, 7, 9, 10, 11, 13, 14, 15, 16, 17]
----------------------------------------
Teams: (4, 9, 16)
[1, 2, 3, 4, 5, 6, 7, 9, 10, 11, 12, 13, 14, 15, 16, 17]
----------------------------------------
Teams: (4, 9, 18)
[1, 2, 3, 4, 5, 7, 8, 9, 10, 11, 13, 14, 15, 16, 17]
----------------------------------------
Teams: (4, 9, 19)
[1, 2, 3, 4, 5, 7, 8, 9, 10, 11, 13, 14, 15, 16, 17]
----------------------------------------
Teams: (4, 9, 20)
[1, 2, 3, 4, 5, 7, 9, 10, 11, 12, 13, 14, 15, 16, 17]
----------------------------------------
Teams: (4, 13, 14)
[2, 3, 4, 5, 6, 8, 10, 11, 12, 13, 16]
----------------------------------------
Teams: (4, 13, 15)
[2, 3, 4, 5, 6, 10, 11, 12, 13, 15, 16, 17]
----------------------------------------
Teams: (4, 13, 16)
[2, 3, 4, 5, 6, 10, 11, 12, 13, 14, 15, 16, 17]
----------------------------------------
Teams: (4, 13, 18)
[1, 2, 3, 4, 5, 6, 8, 10, 11, 12, 13, 16]
----------------------------------------
Teams: (4, 13, 19)
[2, 3, 4, 5, 6, 8, 10, 11, 12, 13, 16]
----------------------------------------
Teams: (4, 13, 20)
[2, 3, 4, 5, 6, 7, 9, 10, 11, 12, 13, 14, 15, 16]
----------------------------------------
Teams: (4, 14, 15)
[2, 3, 5, 8, 10, 11, 12, 13, 15, 16, 17]
----------------------------------------
Teams: (4, 14, 16)
[2, 3, 5, 6, 8, 10, 11, 12, 13, 14, 15, 16, 17]
----------------------------------------
Teams: (4, 14, 18)
[1, 2, 3, 5, 8, 10, 11, 12, 13, 16]
----------------------------------------
Teams: (4, 14, 19)
[2, 3, 4, 5, 8, 10, 11, 12, 13, 16]
----------------------------------------
Teams: (4, 14, 20)
[2, 3, 5, 7, 8, 9, 10, 11, 12, 13, 14, 15, 16]
----------------------------------------
Teams: (4, 15, 16)
[2, 3, 5, 6, 10, 11, 12, 13, 14, 15, 16, 17]
----------------------------------------
Teams: (4, 15, 18)
[1, 2, 3, 5, 8, 10, 11, 13, 15, 16, 17]
----------------------------------------
Teams: (4, 15, 19)
[2, 3, 4, 5, 8, 10, 11, 13, 15, 16, 17]
----------------------------------------
Teams: (4, 15, 20)
[2, 3, 5, 7, 9, 10, 11, 12, 13, 14, 15, 16, 17]
----------------------------------------
Teams: (4, 16, 18)
[1, 2, 3, 5, 6, 8, 10, 11, 12, 13, 14, 15, 16, 17]
----------------------------------------
Teams: (4, 16, 19)
[2, 3, 4, 5, 6, 8, 10, 11, 12, 13, 14, 15, 16, 17]
----------------------------------------
Teams: (4, 16, 20)
[2, 3, 5, 6, 7, 9, 10, 11, 12, 13, 14, 15, 16, 17]
----------------------------------------
Teams: (4, 18, 19)
[1, 2, 3, 4, 5, 8, 10, 11, 13, 16]
----------------------------------------
Teams: (4, 18, 20)
[1, 2, 3, 5, 7, 8, 9, 10, 11, 12, 13, 14, 15, 16]
----------------------------------------
Teams: (4, 19, 20)
[2, 3, 4, 5, 7, 8, 9, 10, 11, 12, 13, 14, 15, 16]
----------------------------------------
Teams: (5, 7, 8)
[1, 2, 4, 6, 7, 8, 9, 11, 12, 13, 14, 15, 17]
----------------------------------------
Teams: (5, 7, 9)
[1, 4, 6, 7, 8, 9, 11, 12, 14, 15, 17]
----------------------------------------
Teams: (5, 7, 13)
[1, 4, 6, 7, 8, 10, 11, 12, 14, 15, 16, 17]
----------------------------------------
Teams: (5, 7, 14)
[1, 2, 4, 6, 7, 8, 11, 12, 14, 15, 16, 17]
----------------------------------------
Teams: (5, 7, 15)
[1, 2, 3, 4, 5, 6, 7, 8, 11, 12, 14, 15, 17]
----------------------------------------
Teams: (5, 7, 16)
[1, 4, 6, 7, 8, 10, 11, 12, 14, 15, 17]
----------------------------------------
Teams: (5, 7, 18)
[1, 3, 4, 6, 7, 8, 10, 11, 12, 13, 14, 15, 16, 17]
----------------------------------------
Teams: (5, 7, 19)
[1, 4, 6, 7, 8, 10, 11, 12, 14, 15, 17]
----------------------------------------
Teams: (5, 7, 20)
[1, 3, 4, 6, 7, 8, 9, 11, 12, 14, 15, 17]
----------------------------------------
Teams: (5, 8, 9)
[1, 2, 4, 6, 7, 8, 9, 12, 13, 14, 15, 17]
----------------------------------------
Teams: (5, 8, 13)
[1, 2, 4, 6, 8, 9, 10, 12, 13, 14, 16, 17]
----------------------------------------
Teams: (5, 8, 14)
[1, 2, 4, 6, 8, 9, 12, 13, 14, 16, 17]
----------------------------------------
Teams: (5, 8, 15)
[1, 2, 3, 4, 5, 6, 8, 9, 11, 12, 13, 14, 15, 17]
----------------------------------------
Teams: (5, 8, 16)
[1, 2, 4, 6, 8, 9, 10, 12, 13, 14, 15, 17]
----------------------------------------
Teams: (5, 8, 18)
[1, 2, 3, 4, 6, 8, 9, 10, 12, 13, 14, 16, 17]
----------------------------------------
Teams: (5, 8, 19)
[1, 2, 4, 6, 8, 9, 10, 11, 12, 13, 14, 17]
----------------------------------------
Teams: (5, 8, 20)
[1, 2, 3, 4, 6, 7, 8, 9, 12, 13, 14, 15, 17]
----------------------------------------
Teams: (5, 9, 13)
[1, 4, 6, 7, 8, 9, 10, 12, 14, 15, 16, 17]
----------------------------------------
Teams: (5, 9, 14)
[1, 2, 4, 6, 7, 8, 9, 12, 14, 15, 16, 17]
----------------------------------------
Teams: (5, 9, 15)
[1, 2, 3, 4, 5, 6, 7, 8, 9, 11, 12, 14, 15, 17]
----------------------------------------
Teams: (5, 9, 16)
[1, 4, 6, 7, 8, 9, 10, 12, 14, 15, 17]
----------------------------------------
Teams: (5, 9, 18)
[1, 3, 4, 6, 7, 8, 9, 10, 12, 13, 14, 15, 16, 17]
----------------------------------------
Teams: (5, 9, 19)
[1, 4, 6, 7, 8, 9, 10, 11, 12, 14, 15, 17]
----------------------------------------
Teams: (5, 9, 20)
[1, 3, 4, 6, 7, 8, 9, 12, 14, 15, 17]
----------------------------------------
Teams: (5, 13, 14)
[1, 2, 4, 6, 8, 10, 12, 14, 16, 17]
----------------------------------------
Teams: (5, 13, 15)
[1, 2, 3, 4, 5, 6, 8, 10, 11, 12, 14, 15, 16, 17]
----------------------------------------
Teams: (5, 13, 16)
[1, 4, 6, 8, 10, 12, 14, 15, 16, 17]
----------------------------------------
Teams: (5, 13, 18)
[1, 3, 4, 6, 8, 10, 12, 13, 14, 16, 17]
----------------------------------------
Teams: (5, 13, 19)
[1, 4, 6, 8, 10, 11, 12, 14, 16, 17]
----------------------------------------
Teams: (5, 13, 20)
[1, 3, 4, 6, 7, 8, 9, 10, 12, 14, 15, 16, 17]
----------------------------------------
Teams: (5, 14, 15)
[1, 2, 3, 5, 6, 8, 11, 12, 14, 15, 16, 17]
----------------------------------------
Teams: (5, 14, 16)
[1, 2, 6, 8, 10, 12, 14, 15, 16, 17]
----------------------------------------
Teams: (5, 14, 18)
[1, 2, 3, 6, 8, 10, 12, 13, 14, 16, 17]
----------------------------------------
Teams: (5, 14, 19)
[1, 2, 4, 6, 8, 10, 11, 12, 14, 16, 17]
----------------------------------------
Teams: (5, 14, 20)
[1, 2, 3, 6, 7, 8, 9, 12, 14, 15, 16, 17]
----------------------------------------
Teams: (5, 15, 16)
[1, 2, 3, 5, 6, 8, 10, 11, 12, 14, 15, 17]
----------------------------------------
Teams: (5, 15, 18)
[1, 2, 3, 5, 6, 8, 10, 11, 12, 13, 14, 15, 16, 17]
----------------------------------------
Teams: (5, 15, 19)
[1, 2, 3, 4, 5, 6, 8, 10, 11, 12, 14, 15, 17]
----------------------------------------
Teams: (5, 15, 20)
[1, 2, 3, 5, 6, 7, 8, 9, 11, 12, 14, 15, 17]
----------------------------------------
Teams: (5, 16, 18)
[1, 3, 6, 8, 10, 12, 13, 14, 15, 16, 17]
----------------------------------------
Teams: (5, 16, 19)
[1, 4, 6, 8, 10, 11, 12, 14, 15, 17]
----------------------------------------
Teams: (5, 16, 20)
[1, 3, 6, 7, 8, 9, 10, 12, 14, 15, 17]
----------------------------------------
Teams: (5, 18, 19)
[1, 3, 4, 6, 8, 10, 11, 12, 13, 14, 16, 17]
----------------------------------------
Teams: (5, 18, 20)
[1, 3, 6, 7, 8, 9, 10, 12, 13, 14, 15, 16, 17]
----------------------------------------
Teams: (5, 19, 20)
[1, 3, 4, 6, 7, 8, 9, 10, 11, 12, 14, 15, 17]
----------------------------------------
Teams: (7, 8, 9)
[1, 2, 4, 6, 7, 9, 11, 13, 14, 15, 17]
----------------------------------------
Teams: (7, 8, 13)
[1, 2, 4, 6, 7, 9, 10, 11, 12, 13, 15, 16, 17]
----------------------------------------
Teams: (7, 8, 14)
[1, 2, 4, 6, 7, 8, 9, 11, 12, 13, 15, 16, 17]
----------------------------------------
Teams: (7, 8, 15)
[1, 2, 3, 4, 5, 6, 7, 9, 11, 13, 15, 17]
----------------------------------------
Teams: (7, 8, 16)
[1, 2, 4, 6, 7, 9, 10, 11, 12, 13, 14, 15, 17]
----------------------------------------
Teams: (7, 8, 18)
[1, 2, 3, 4, 6, 7, 8, 9, 10, 11, 13, 15, 16, 17]
----------------------------------------
Teams: (7, 8, 19)
[1, 2, 4, 6, 7, 8, 9, 10, 11, 13, 15, 17]
----------------------------------------
Teams: (7, 8, 20)
[1, 2, 3, 4, 6, 7, 9, 11, 12, 13, 14, 15, 17]
----------------------------------------
Teams: (7, 9, 13)
[1, 4, 6, 7, 9, 10, 11, 12, 14, 15, 16, 17]
----------------------------------------
Teams: (7, 9, 14)
[1, 2, 4, 6, 7, 8, 9, 11, 12, 14, 15, 16, 17]
----------------------------------------
Teams: (7, 9, 15)
[1, 2, 3, 4, 5, 6, 7, 9, 11, 14, 15, 17]
----------------------------------------
Teams: (7, 9, 16)
[1, 4, 6, 7, 9, 10, 11, 12, 14, 15, 17]
----------------------------------------
Teams: (7, 9, 18)
[1, 3, 4, 6, 7, 8, 9, 10, 11, 13, 14, 15, 16, 17]
----------------------------------------
Teams: (7, 9, 19)
[1, 4, 6, 7, 8, 9, 10, 11, 14, 15, 17]
----------------------------------------
Teams: (7, 9, 20)
[1, 3, 4, 6, 7, 9, 11, 12, 14, 15, 17]
----------------------------------------
Teams: (7, 13, 14)
[1, 2, 4, 6, 7, 8, 10, 11, 12, 15, 16, 17]
----------------------------------------
Teams: (7, 13, 15)
[1, 2, 3, 4, 5, 6, 7, 10, 11, 12, 15, 16, 17]
----------------------------------------
Teams: (7, 13, 16)
[1, 4, 6, 7, 10, 11, 12, 14, 15, 16, 17]
----------------------------------------
Teams: (7, 13, 18)
[1, 3, 4, 6, 7, 8, 10, 11, 12, 13, 15, 16, 17]
----------------------------------------
Teams: (7, 13, 19)
[1, 4, 6, 7, 8, 10, 11, 12, 15, 16, 17]
----------------------------------------
Teams: (7, 13, 20)
[1, 3, 4, 6, 7, 9, 10, 11, 12, 14, 15, 16, 17]
----------------------------------------
Teams: (7, 14, 15)
[1, 2, 3, 4, 5, 6, 7, 8, 11, 12, 15, 16, 17]
----------------------------------------
Teams: (7, 14, 16)
[1, 2, 4, 6, 7, 8, 10, 11, 12, 14, 15, 16, 17]
----------------------------------------
Teams: (7, 14, 18)
[1, 2, 3, 4, 6, 7, 8, 10, 11, 12, 13, 15, 16, 17]
----------------------------------------
Teams: (7, 14, 19)
[1, 2, 4, 6, 7, 8, 10, 11, 12, 15, 16, 17]
----------------------------------------
Teams: (7, 14, 20)
[1, 2, 3, 4, 6, 7, 8, 9, 11, 12, 14, 15, 16, 17]
----------------------------------------
Teams: (7, 15, 16)
[1, 2, 3, 4, 5, 6, 7, 10, 11, 12, 14, 15, 17]
----------------------------------------
Teams: (7, 15, 18)
[1, 2, 3, 4, 5, 6, 7, 8, 10, 11, 13, 15, 16, 17]
----------------------------------------
Teams: (7, 15, 19)
[1, 2, 3, 4, 5, 6, 7, 8, 10, 11, 15, 17]
----------------------------------------
Teams: (7, 15, 20)
[1, 2, 3, 4, 5, 6, 7, 9, 11, 12, 14, 15, 17]
----------------------------------------
Teams: (7, 16, 18)
[1, 3, 4, 6, 7, 8, 10, 11, 12, 13, 14, 15, 16, 17]
----------------------------------------
Teams: (7, 16, 19)
[1, 4, 6, 7, 8, 10, 11, 12, 14, 15, 17]
----------------------------------------
Teams: (7, 16, 20)
[1, 3, 4, 6, 7, 9, 10, 11, 12, 14, 15, 17]
----------------------------------------
Teams: (7, 18, 19)
[1, 3, 4, 6, 7, 8, 10, 11, 13, 15, 16, 17]
----------------------------------------
Teams: (7, 18, 20)
[1, 3, 4, 6, 7, 8, 9, 10, 11, 12, 13, 14, 15, 16, 17]
----------------------------------------
Teams: (7, 19, 20)
[1, 3, 4, 6, 7, 8, 9, 10, 11, 12, 14, 15, 17]
----------------------------------------
Teams: (8, 9, 13)
[1, 2, 4, 6, 7, 9, 10, 12, 13, 14, 15, 16, 17]
----------------------------------------
Teams: (8, 9, 14)
[1, 2, 4, 6, 7, 8, 9, 12, 13, 14, 15, 16, 17]
----------------------------------------
Teams: (8, 9, 15)
[1, 2, 3, 4, 5, 6, 7, 9, 11, 13, 14, 15, 17]
----------------------------------------
Teams: (8, 9, 16)
[1, 2, 4, 6, 7, 9, 10, 12, 13, 14, 15, 17]
----------------------------------------
Teams: (8, 9, 18)
[1, 2, 3, 4, 6, 7, 8, 9, 10, 13, 14, 15, 16, 17]
----------------------------------------
Teams: (8, 9, 19)
[1, 2, 4, 6, 7, 8, 9, 10, 11, 13, 14, 15, 17]
----------------------------------------
Teams: (8, 9, 20)
[1, 2, 3, 4, 6, 7, 9, 12, 13, 14, 15, 17]
----------------------------------------
Teams: (8, 13, 14)
[2, 4, 6, 8, 9, 10, 12, 13, 16]
----------------------------------------
Teams: (8, 13, 15)
[2, 3, 4, 5, 6, 9, 10, 11, 12, 13, 15, 16, 17]
----------------------------------------
Teams: (8, 13, 16)
[2, 4, 6, 9, 10, 12, 13, 14, 15, 16, 17]
----------------------------------------
Teams: (8, 13, 18)
[1, 2, 3, 4, 6, 8, 9, 10, 12, 13, 16]
----------------------------------------
Teams: (8, 13, 19)
[2, 4, 6, 8, 9, 10, 11, 12, 13, 16]
----------------------------------------
Teams: (8, 13, 20)
[2, 3, 4, 6, 7, 9, 10, 12, 13, 14, 15, 16]
----------------------------------------
Teams: (8, 14, 15)
[2, 3, 4, 5, 6, 8, 9, 11, 12, 13, 15, 16, 17]
----------------------------------------
Teams: (8, 14, 16)
[2, 4, 6, 8, 9, 10, 12, 13, 14, 15, 16, 17]
----------------------------------------
Teams: (8, 14, 18)
[1, 2, 3, 4, 6, 8, 9, 10, 12, 13, 16]
----------------------------------------
Teams: (8, 14, 19)
[2, 4, 6, 8, 9, 10, 11, 12, 13, 16]
----------------------------------------
Teams: (8, 14, 20)
[2, 3, 4, 6, 7, 8, 9, 12, 13, 14, 15, 16]
----------------------------------------
Teams: (8, 15, 16)
[2, 3, 4, 5, 6, 9, 10, 11, 12, 13, 14, 15, 17]
----------------------------------------
Teams: (8, 15, 18)
[1, 2, 3, 4, 5, 6, 8, 9, 10, 11, 13, 15, 16, 17]
----------------------------------------
Teams: (8, 15, 19)
[2, 3, 4, 5, 6, 8, 9, 10, 11, 13, 15, 17]
----------------------------------------
Teams: (8, 15, 20)
[2, 3, 4, 5, 6, 7, 9, 11, 12, 13, 14, 15, 17]
----------------------------------------
Teams: (8, 16, 18)
[1, 2, 3, 4, 6, 8, 9, 10, 12, 13, 14, 15, 16, 17]
----------------------------------------
Teams: (8, 16, 19)
[2, 4, 6, 8, 9, 10, 11, 12, 13, 14, 15, 17]
----------------------------------------
Teams: (8, 16, 20)
[2, 3, 4, 6, 7, 9, 10, 12, 13, 14, 15, 17]
----------------------------------------
Teams: (8, 18, 19)
[1, 2, 3, 4, 6, 8, 9, 10, 11, 13, 16]
----------------------------------------
Teams: (8, 18, 20)
[1, 2, 3, 4, 6, 7, 8, 9, 10, 12, 13, 14, 15, 16]
----------------------------------------
Teams: (8, 19, 20)
[2, 3, 4, 6, 7, 8, 9, 10, 11, 12, 13, 14, 15]
----------------------------------------
Teams: (9, 13, 14)
[1, 2, 4, 6, 7, 8, 9, 10, 12, 14, 15, 16, 17]
----------------------------------------
Teams: (9, 13, 15)
[1, 2, 3, 4, 5, 6, 7, 9, 10, 11, 12, 14, 15, 16, 17]
----------------------------------------
Teams: (9, 13, 16)
[1, 4, 6, 7, 9, 10, 12, 14, 15, 16, 17]
----------------------------------------
Teams: (9, 13, 18)
[1, 3, 4, 6, 7, 8, 9, 10, 12, 13, 14, 15, 16, 17]
----------------------------------------
Teams: (9, 13, 19)
[1, 4, 6, 7, 8, 9, 10, 11, 12, 14, 15, 16, 17]
----------------------------------------
Teams: (9, 13, 20)
[1, 3, 4, 6, 7, 9, 10, 12, 14, 15, 16, 17]
----------------------------------------
Teams: (9, 14, 15)
[1, 2, 3, 4, 5, 7, 8, 9, 11, 12, 14, 15, 16, 17]
----------------------------------------
Teams: (9, 14, 16)
[1, 2, 4, 6, 7, 8, 9, 10, 12, 14, 15, 16, 17]
----------------------------------------
Teams: (9, 14, 18)
[1, 2, 3, 4, 7, 8, 9, 10, 12, 13, 14, 15, 16, 17]
----------------------------------------
Teams: (9, 14, 19)
[1, 2, 4, 7, 8, 9, 10, 11, 12, 14, 15, 16, 17]
----------------------------------------
Teams: (9, 14, 20)
[1, 2, 3, 4, 7, 8, 9, 12, 14, 15, 16, 17]
----------------------------------------
Teams: (9, 15, 16)
[1, 2, 3, 4, 5, 6, 7, 9, 10, 11, 12, 14, 15, 17]
----------------------------------------
Teams: (9, 15, 18)
[1, 2, 3, 4, 5, 7, 8, 9, 10, 11, 13, 14, 15, 16, 17]
----------------------------------------
Teams: (9, 15, 19)
[1, 2, 3, 4, 5, 7, 8, 9, 10, 11, 14, 15, 17]
----------------------------------------
Teams: (9, 15, 20)
[1, 2, 3, 4, 5, 7, 9, 11, 12, 14, 15, 17]
----------------------------------------
Teams: (9, 16, 18)
[1, 3, 4, 6, 7, 8, 9, 10, 12, 13, 14, 15, 16, 17]
----------------------------------------
Teams: (9, 16, 19)
[1, 4, 6, 7, 8, 9, 10, 11, 12, 14, 15, 17]
----------------------------------------
Teams: (9, 16, 20)
[1, 3, 4, 6, 7, 9, 10, 12, 14, 15, 17]
----------------------------------------
Teams: (9, 18, 19)
[1, 3, 4, 7, 8, 9, 10, 11, 13, 14, 15, 16, 17]
----------------------------------------
Teams: (9, 18, 20)
[1, 3, 4, 7, 8, 9, 10, 12, 13, 14, 15, 16, 17]
----------------------------------------
Teams: (9, 19, 20)
[1, 3, 4, 7, 8, 9, 10, 11, 12, 14, 15, 17]
----------------------------------------
Teams: (13, 14, 15)
[2, 3, 4, 5, 6, 8, 10, 11, 12, 15, 16, 17]
----------------------------------------
Teams: (13, 14, 16)
[2, 4, 6, 8, 10, 12, 14, 15, 16, 17]
----------------------------------------
Teams: (13, 14, 18)
[1, 2, 3, 4, 6, 8, 10, 12, 13, 16]
----------------------------------------
Teams: (13, 14, 19)
[2, 4, 6, 8, 10, 11, 12, 16]
----------------------------------------
Teams: (13, 14, 20)
[2, 3, 4, 6, 7, 8, 9, 10, 12, 14, 15, 16]
----------------------------------------
Teams: (13, 15, 16)
[2, 3, 4, 5, 6, 10, 11, 12, 14, 15, 16, 17]
----------------------------------------
Teams: (13, 15, 18)
[1, 2, 3, 4, 5, 6, 8, 10, 11, 12, 13, 15, 16, 17]
----------------------------------------
Teams: (13, 15, 19)
[2, 3, 4, 5, 6, 8, 10, 11, 12, 15, 16, 17]
----------------------------------------
Teams: (13, 15, 20)
[2, 3, 4, 5, 6, 7, 9, 10, 11, 12, 14, 15, 16, 17]
----------------------------------------
Teams: (13, 16, 18)
[1, 3, 4, 6, 8, 10, 12, 13, 14, 15, 16, 17]
----------------------------------------
Teams: (13, 16, 19)
[4, 6, 8, 10, 11, 12, 14, 15, 16, 17]
----------------------------------------
Teams: (13, 16, 20)
[3, 4, 6, 7, 9, 10, 12, 14, 15, 16, 17]
----------------------------------------
Teams: (13, 18, 19)
[1, 3, 4, 6, 8, 10, 11, 12, 13, 16]
----------------------------------------
Teams: (13, 18, 20)
[1, 3, 4, 6, 7, 8, 9, 10, 12, 13, 14, 15, 16]
----------------------------------------
Teams: (13, 19, 20)
[3, 4, 6, 7, 8, 9, 10, 11, 12, 14, 15, 16]
----------------------------------------
Teams: (14, 15, 16)
[2, 3, 5, 6, 8, 10, 11, 12, 14, 15, 16, 17]
----------------------------------------
Teams: (14, 15, 18)
[1, 2, 3, 5, 8, 10, 11, 12, 13, 15, 16, 17]
----------------------------------------
Teams: (14, 15, 19)
[2, 3, 4, 5, 8, 10, 11, 12, 15, 16, 17]
----------------------------------------
Teams: (14, 15, 20)
[2, 3, 5, 7, 8, 9, 11, 12, 14, 15, 16, 17]
----------------------------------------
Teams: (14, 16, 18)
[1, 2, 3, 6, 8, 10, 12, 13, 14, 15, 16, 17]
----------------------------------------
Teams: (14, 16, 19)
[2, 4, 6, 8, 10, 11, 12, 14, 15, 16, 17]
----------------------------------------
Teams: (14, 16, 20)
[2, 3, 6, 7, 8, 9, 10, 12, 14, 15, 16, 17]
----------------------------------------
Teams: (14, 18, 19)
[1, 2, 3, 4, 8, 10, 11, 12, 13, 16]
----------------------------------------
Teams: (14, 18, 20)
[1, 2, 3, 7, 8, 9, 10, 12, 13, 14, 15, 16]
----------------------------------------
Teams: (14, 19, 20)
[2, 3, 4, 7, 8, 9, 10, 11, 12, 14, 15, 16]
----------------------------------------
Teams: (15, 16, 18)
[1, 2, 3, 5, 6, 8, 10, 11, 12, 13, 14, 15, 16, 17]
----------------------------------------
Teams: (15, 16, 19)
[2, 3, 4, 5, 6, 8, 10, 11, 12, 14, 15, 17]
----------------------------------------
Teams: (15, 16, 20)
[2, 3, 5, 6, 7, 9, 10, 11, 12, 14, 15, 17]
----------------------------------------
Teams: (15, 18, 19)
[1, 2, 3, 4, 5, 8, 10, 11, 13, 15, 16, 17]
----------------------------------------
Teams: (15, 18, 20)
[1, 2, 3, 5, 7, 8, 9, 10, 11, 12, 13, 14, 15, 16, 17]
----------------------------------------
Teams: (15, 19, 20)
[2, 3, 4, 5, 7, 8, 9, 10, 11, 12, 14, 15, 17]
----------------------------------------
Teams: (16, 18, 19)
[1, 3, 4, 6, 8, 10, 11, 12, 13, 14, 15, 16, 17]
----------------------------------------
Teams: (16, 18, 20)
[1, 3, 6, 7, 8, 9, 10, 12, 13, 14, 15, 16, 17]
----------------------------------------
Teams: (16, 19, 20)
[3, 4, 6, 7, 8, 9, 10, 11, 12, 14, 15, 17]
----------------------------------------
Teams: (18, 19, 20)
[1, 3, 4, 7, 8, 9, 10, 11, 12, 13, 14, 15, 16]
----------------------------------------
